\relax 
\catcode `"\active 
\providecommand \oddpage@label [2]{}
\select@language{brazilian}
\@writefile{toc}{\select@language{brazilian}}
\@writefile{lof}{\select@language{brazilian}}
\@writefile{lot}{\select@language{brazilian}}
\@writefile{toc}{\contentsline {section}{\numberline {1}Introdu\IeC {\c c}\IeC {\~a}o}{3}}
\@writefile{toc}{\contentsline {section}{\numberline {2}Projeto}{4}}
\@writefile{lof}{\contentsline {figure}{\numberline {1}{\ignorespaces Esquem\IeC {\'a}tico EXEMPLAR}}{4}}
\newlabel{fig:q5_exemplar}{{1}{4}}
\@writefile{lof}{\contentsline {figure}{\numberline {2}{\ignorespaces Esquem\IeC {\'a}tico EXEMPLAR\_XTR}}{4}}
\newlabel{fig:q5_exemplarXTR}{{2}{4}}
\@writefile{lof}{\contentsline {figure}{\numberline {3}{\ignorespaces Esquem\IeC {\'a}tico para o caminho cr\IeC {\'\i }tico do circuito desenvolvido descrito pelo arquivo (\emph  {uart.vhd})}}{5}}
\newlabel{fig:q6_critical_path}{{3}{5}}
\@writefile{lof}{\contentsline {figure}{\numberline {4}{\ignorespaces Esquem\IeC {\'a}tico para o caminho cr\IeC {\'\i }tico otimizado do circuito desenvolvido descrito pelo arquivo (\emph  {uart.vhd})}}{6}}
\newlabel{fig:q7_critical_path}{{4}{6}}
\@writefile{lof}{\contentsline {figure}{\numberline {5}{\ignorespaces \emph  {Layout} para o circuito desenvolvido \textbf  {uart}}}{7}}
\newlabel{fig:layout_mito}{{5}{7}}
\@writefile{lof}{\contentsline {figure}{\numberline {6}{\ignorespaces \emph  {Prescaler} $32/33$}}{8}}
\newlabel{fig:prescaler}{{6}{8}}
\@writefile{lof}{\contentsline {figure}{\numberline {7}{\ignorespaces  M\IeC {\'a}quina de estados para o circuito divisor de frequ\IeC {\^e}ncia 4/5}}{9}}
\newlabel{fig:state_machine}{{7}{9}}
\@writefile{lof}{\contentsline {figure}{\numberline {8}{\ignorespaces Esquem\IeC {\'a}tico para o caminho cr\IeC {\'\i }tico do circuito desenvolvido para o divisor de frequ\IeC {\^e}ncia 4/5}}{11}}
\newlabel{fig:q16_critical_path}{{8}{11}}
\@writefile{lof}{\contentsline {figure}{\numberline {9}{\ignorespaces Esquem\IeC {\'a}tico para o circuito divisor de frequ\IeC {\^e}ncia 4/5}}{12}}
\newlabel{fig:q16_schematic}{{9}{12}}
\@writefile{lof}{\contentsline {figure}{\numberline {10}{\ignorespaces \emph  {Layout} desenvolvido para o divisor de frequ\IeC {\^e}ncia 4/5}}{12}}
\newlabel{fig:q18_layout}{{10}{12}}
\@writefile{lof}{\contentsline {figure}{\numberline {11}{\ignorespaces Rela\IeC {\c c}\IeC {\~a}o entre per\IeC {\'\i }odo de entrada e per\IeC {\'\i }odo de sa\IeC {\'\i }da do circuito divisor de frequ\IeC {\^e}ncia para MC=0 em fun\IeC {\c c}\IeC {\~a}o do per\IeC {\'\i }odo de entrada - raz\IeC {\~a}o (adimensional) x per\IeC {\'\i }odo ($ns$)}}{14}}
\newlabel{fig:q19_ratio0}{{11}{14}}
\@writefile{lof}{\contentsline {figure}{\numberline {12}{\ignorespaces Rela\IeC {\c c}\IeC {\~a}o entre per\IeC {\'\i }odo de entrada e per\IeC {\'\i }odo de sa\IeC {\'\i }da do circuito divisor de frequ\IeC {\^e}ncia para MC=1 em fun\IeC {\c c}\IeC {\~a}o do per\IeC {\'\i }odo de entrada - raz\IeC {\~a}o (adimensional) x per\IeC {\'\i }odo ($ns$)}}{14}}
\newlabel{fig:q19_ratio1}{{12}{14}}
