.include "GateArray.pex.netlist.pex"
.subckt GATEARRAY  VSS VDD CTR IN2 IN3 IN4 IN1 IN5
* 
* IN5	IN5
* IN1	IN1
* IN4	IN4
* IN3	IN3
* IN2	IN2
* CTR	CTR
* VDD	VDD
* VSS	VSS
mM0 N_VSS_M0_d N_VSS_M0_g 9 N_VSS_M0_b NMOS4 L=3.5e-07 W=5.5e-06 AD=7.2875e-12
+ AS=7.15e-12 PD=2.65e-06 PS=8.1e-06 NRD=0.0772727 NRS=0.0772727
mM1 10 N_CTR_M1_g N_VSS_M0_d N_VSS_M0_b NMOS4 L=3.5e-07 W=5.5e-06 AD=7.2875e-12
+ AS=7.2875e-12 PD=2.65e-06 PS=2.65e-06 NRD=0.0772727 NRS=0.0772727
mM2 N_IN2_M2_d N_IN1_M2_g 10 N_VSS_M0_b NMOS4 L=3.5e-07 W=5.5e-06 AD=7.2875e-12
+ AS=7.2875e-12 PD=2.65e-06 PS=2.65e-06 NRD=0.0772727 NRS=0.0772727
mM3 N_VSS_M3_d N_VSS_M3_g N_IN2_M2_d N_VSS_M0_b NMOS4 L=3.5e-07 W=5.5e-06
+ AD=7.2875e-12 AS=7.2875e-12 PD=2.65e-06 PS=2.65e-06 NRD=0.0772727 NRS=0.0772727
mM4 11 N_CTR_M4_g N_VSS_M3_d N_VSS_M0_b NMOS4 L=3.5e-07 W=5.5e-06 AD=7.2875e-12
+ AS=7.2875e-12 PD=2.65e-06 PS=2.65e-06 NRD=0.0772727 NRS=0.0772727
mM5 N_IN3_M5_d N_IN2_M5_g 11 N_VSS_M0_b NMOS4 L=3.5e-07 W=5.5e-06 AD=7.2875e-12
+ AS=7.2875e-12 PD=2.65e-06 PS=2.65e-06 NRD=0.0772727 NRS=0.0772727
mM6 N_VSS_M6_d N_VSS_M6_g N_IN3_M5_d N_VSS_M0_b NMOS4 L=3.5e-07 W=5.5e-06
+ AD=7.2875e-12 AS=7.2875e-12 PD=2.65e-06 PS=2.65e-06 NRD=0.0772727 NRS=0.0772727
mM7 12 N_CTR_M7_g N_VSS_M6_d N_VSS_M0_b NMOS4 L=3.5e-07 W=5.5e-06 AD=7.2875e-12
+ AS=7.2875e-12 PD=2.65e-06 PS=2.65e-06 NRD=0.0772727 NRS=0.0772727
mM8 N_IN4_M8_d N_IN3_M8_g 12 N_VSS_M0_b NMOS4 L=3.5e-07 W=5.5e-06 AD=7.2875e-12
+ AS=7.2875e-12 PD=2.65e-06 PS=2.65e-06 NRD=0.0772727 NRS=0.0772727
mM9 N_VSS_M9_d N_VSS_M9_g N_IN4_M8_d N_VSS_M0_b NMOS4 L=3.5e-07 W=5.5e-06
+ AD=7.2875e-12 AS=7.2875e-12 PD=2.65e-06 PS=2.65e-06 NRD=0.0772727 NRS=0.0772727
mM10 13 N_CTR_M10_g N_VSS_M9_d N_VSS_M0_b NMOS4 L=3.5e-07 W=5.5e-06
+ AD=7.2875e-12 AS=7.2875e-12 PD=2.65e-06 PS=2.65e-06 NRD=0.0772727 NRS=0.0772727
mM11 N_IN5_M11_d N_IN4_M11_g 13 N_VSS_M0_b NMOS4 L=3.5e-07 W=5.5e-06
+ AD=7.2875e-12 AS=7.2875e-12 PD=2.65e-06 PS=2.65e-06 NRD=0.0772727 NRS=0.0772727
mM12 N_VSS_M12_d N_VSS_M12_g N_IN5_M11_d N_VSS_M0_b NMOS4 L=3.5e-07 W=5.5e-06
+ AD=7.2875e-12 AS=7.2875e-12 PD=2.65e-06 PS=2.65e-06 NRD=0.0772727 NRS=0.0772727
mM13 14 N_CTR_M13_g N_VSS_M12_d N_VSS_M0_b NMOS4 L=3.5e-07 W=5.5e-06
+ AD=7.2875e-12 AS=7.2875e-12 PD=2.65e-06 PS=2.65e-06 NRD=0.0772727 NRS=0.0772727
mM14 N_IN1_M14_d N_IN5_M14_g 14 N_VSS_M0_b NMOS4 L=3.5e-07 W=5.5e-06
+ AD=7.2875e-12 AS=7.2875e-12 PD=2.65e-06 PS=2.65e-06 NRD=0.0772727 NRS=0.0772727
mM15 15 N_VSS_M15_g N_IN1_M14_d N_VSS_M0_b NMOS4 L=3.5e-07 W=5.5e-06
+ AD=7.15e-12 AS=7.2875e-12 PD=8.1e-06 PS=2.65e-06 NRD=0.0772727 NRS=0.0772727
mM16 N_VDD_M16_d N_VDD_M16_g 16 N_VDD_M16_b PMOS4 L=3.5e-07 W=5.5e-06
+ AD=7.2875e-12 AS=7.15e-12 PD=2.65e-06 PS=8.1e-06 NRD=0.0772727 NRS=0.0772727
mM17 N_IN2_M17_d N_CTR_M17_g N_VDD_M16_d N_VDD_M16_b PMOS4 L=3.5e-07 W=5.5e-06
+ AD=7.2875e-12 AS=7.2875e-12 PD=2.65e-06 PS=2.65e-06 NRD=0.0772727 NRS=0.0772727
mM18 N_VDD_M18_d N_IN1_M18_g N_IN2_M17_d N_VDD_M16_b PMOS4 L=3.5e-07 W=5.5e-06
+ AD=7.2875e-12 AS=7.2875e-12 PD=2.65e-06 PS=2.65e-06 NRD=0.0772727 NRS=0.0772727
mM19 N_IN3_M19_d N_CTR_M19_g N_VDD_M19_s N_VDD_M16_b PMOS4 L=3.5e-07 W=5.5e-06
+ AD=7.2875e-12 AS=7.2875e-12 PD=2.65e-06 PS=2.65e-06 NRD=0.0772727 NRS=0.0772727
mM20 N_VDD_M20_d N_IN2_M20_g N_IN3_M19_d N_VDD_M16_b PMOS4 L=3.5e-07 W=5.5e-06
+ AD=7.2875e-12 AS=7.2875e-12 PD=2.65e-06 PS=2.65e-06 NRD=0.0772727 NRS=0.0772727
mM21 N_IN4_M21_d N_CTR_M21_g N_VDD_M21_s N_VDD_M16_b PMOS4 L=3.5e-07 W=5.5e-06
+ AD=7.2875e-12 AS=7.2875e-12 PD=2.65e-06 PS=2.65e-06 NRD=0.0772727 NRS=0.0772727
mM22 N_VDD_M22_d N_IN3_M22_g N_IN4_M21_d N_VDD_M16_b PMOS4 L=3.5e-07 W=5.5e-06
+ AD=7.2875e-12 AS=7.2875e-12 PD=2.65e-06 PS=2.65e-06 NRD=0.0772727 NRS=0.0772727
mM23 N_IN5_M23_d N_CTR_M23_g N_VDD_M23_s N_VDD_M16_b PMOS4 L=3.5e-07 W=5.5e-06
+ AD=7.2875e-12 AS=7.2875e-12 PD=2.65e-06 PS=2.65e-06 NRD=0.0772727 NRS=0.0772727
mM24 N_VDD_M24_d N_IN4_M24_g N_IN5_M23_d N_VDD_M16_b PMOS4 L=3.5e-07 W=5.5e-06
+ AD=7.2875e-12 AS=7.2875e-12 PD=2.65e-06 PS=2.65e-06 NRD=0.0772727 NRS=0.0772727
mM25 N_IN1_M25_d N_CTR_M25_g N_VDD_M25_s N_VDD_M16_b PMOS4 L=3.5e-07 W=5.5e-06
+ AD=7.2875e-12 AS=7.2875e-12 PD=2.65e-06 PS=2.65e-06 NRD=0.0772727 NRS=0.0772727
mM26 N_VDD_M26_d N_IN5_M26_g N_IN1_M25_d N_VDD_M16_b PMOS4 L=3.5e-07 W=5.5e-06
+ AD=7.2875e-12 AS=7.2875e-12 PD=2.65e-06 PS=2.65e-06 NRD=0.0772727 NRS=0.0772727
mM27 17 N_VDD_M27_g N_VDD_M26_d N_VDD_M16_b PMOS4 L=3.5e-07 W=5.5e-06
+ AD=7.15e-12 AS=7.2875e-12 PD=8.1e-06 PS=2.65e-06 NRD=0.0772727 NRS=0.0772727
mM28 N_VDD_M18_d N_VDD_M28_g N_VDD_M19_s N_VDD_M16_b PMOS4 L=3.5e-07 W=5.5e-06
+ AD=7.2875e-12 AS=7.2875e-12 PD=2.65e-06 PS=2.65e-06 NRD=0.0772727 NRS=0.0772727
mM29 N_VDD_M20_d N_VDD_M29_g N_VDD_M21_s N_VDD_M16_b PMOS4 L=3.5e-07 W=5.5e-06
+ AD=7.2875e-12 AS=7.2875e-12 PD=2.65e-06 PS=2.65e-06 NRD=0.0772727 NRS=0.0772727
mM30 N_VDD_M22_d N_VDD_M30_g N_VDD_M23_s N_VDD_M16_b PMOS4 L=3.5e-07 W=5.5e-06
+ AD=7.2875e-12 AS=7.2875e-12 PD=2.65e-06 PS=2.65e-06 NRD=0.0772727 NRS=0.0772727
mM31 N_VDD_M24_d N_VDD_M31_g N_VDD_M25_s N_VDD_M16_b PMOS4 L=3.5e-07 W=5.5e-06
+ AD=7.2875e-12 AS=7.2875e-12 PD=2.65e-06 PS=2.65e-06 NRD=0.0772727 NRS=0.0772727
*
.include "GateArray.pex.netlist.GATEARRAY.pxi"
*
.ends
