\relax 
\catcode `"\active 
\providecommand \oddpage@label [2]{}
\select@language{brazilian}
\@writefile{toc}{\select@language{brazilian}}
\@writefile{lof}{\select@language{brazilian}}
\@writefile{lot}{\select@language{brazilian}}
\@writefile{toc}{\contentsline {section}{\numberline {1}Introdu\IeC {\c c}\IeC {\~a}o}{3}}
\@writefile{toc}{\contentsline {section}{\numberline {2}Projeto}{4}}
\@writefile{lof}{\contentsline {figure}{\numberline {1}{\ignorespaces Esquem\IeC {\'a}tico em n\IeC {\'\i }vel de transistor para o circuito descrito no \emph  {layout} do arquivo \emph  {puntoA}}}{4}}
\newlabel{fig:esquematico}{{1}{4}}
\@writefile{lof}{\contentsline {figure}{\numberline {2}{\ignorespaces \emph  {Layout} desenvolvido para o oscilador em anel com $5$ portas l\IeC {\'o}gicas NAND}}{5}}
\newlabel{fig:layout}{{2}{5}}
\@writefile{lof}{\contentsline {figure}{\numberline {3}{\ignorespaces Simula\IeC {\c c}\IeC {\~a}o realizada para as tens\IeC {\~o}es dos sinais das portas NAND presentes no oscilador desenvolvido com rela\IeC {\c c}\IeC {\~a}o \IeC {\`a} varia\IeC {\c c}\IeC {\~a}o do sinal CRT do componente - tens\IeC {\~a}o ($V$) x tempo ($s$)}}{7}}
\newlabel{fig:sinais_ezwave}{{3}{7}}
\@writefile{lof}{\contentsline {figure}{\numberline {4}{\ignorespaces Faixa de frequ\IeC {\^e}ncia de oscila\IeC {\c c}\IeC {\~a}o para o oscilador em anel em fun\IeC {\c c}\IeC {\~a}o do sinal $CTR$, utilizando o modelo \emph  {worst speed} - frequ\IeC {\^e}ncia ($Hz$) x tens\IeC {\~a}o ($V$).}}{8}}
\newlabel{fig:freq_x_ctr_ws}{{4}{8}}
\@writefile{lof}{\contentsline {figure}{\numberline {5}{\ignorespaces Faixa de frequ\IeC {\^e}ncia de oscila\IeC {\c c}\IeC {\~a}o para o oscilador em anel em fun\IeC {\c c}\IeC {\~a}o do sinal $CTR$, utilizando o modelo \emph  {worst power} - frequ\IeC {\^e}ncia ($Hz$) x tens\IeC {\~a}o ($V$).}}{8}}
\newlabel{fig:freq_x_ctr_wp}{{5}{8}}
\@writefile{lof}{\contentsline {figure}{\numberline {6}{\ignorespaces Faixa de frequ\IeC {\^e}ncia de oscila\IeC {\c c}\IeC {\~a}o para o oscilador em anel em fun\IeC {\c c}\IeC {\~a}o do sinal $CTR$, utilizando o modelo t\IeC {\'\i }pico de transistor - frequ\IeC {\^e}ncia ($Hz$) x tens\IeC {\~a}o ($V$).}}{9}}
\newlabel{fig:freq_x_ctr_tipical}{{6}{9}}
