\select@language {brazilian}
\contentsline {table}{\numberline {1}{\ignorespaces Valores para as densidades de corrente dos metais utilizados da tecnologia AMS $0,35 \ensuremath {\SI@fstyle {\upmu }}m$}}{11}
\contentsline {table}{\numberline {2}{\ignorespaces \emph {Clock} correspondente \IeC {\`a}s simula\IeC {\c c}\IeC {\~o}es e esquem\IeC {\'a}tico do circuito desenvolvido (contador ass\IeC {\'\i }ncrono) }}{13}
