\relax 
\catcode `"\active 
\providecommand \oddpage@label [2]{}
\select@language{brazilian}
\@writefile{toc}{\select@language{brazilian}}
\@writefile{lof}{\select@language{brazilian}}
\@writefile{lot}{\select@language{brazilian}}
\@writefile{toc}{\contentsline {section}{\numberline {1}Introdu\IeC {\c c}\IeC {\~a}o}{4}}
\@writefile{toc}{\contentsline {section}{\numberline {2}Projeto}{5}}
\@writefile{lof}{\contentsline {figure}{\numberline {1}{\ignorespaces Simula\IeC {\c c}\IeC {\~a}o realizada para teste do VHDL desenvolvido do contador ass\IeC {\'\i }ncrono com o sinal $SM=0$}}{6}}
\newlabel{fig:sm0_counter}{{1}{6}}
\@writefile{lof}{\contentsline {figure}{\numberline {2}{\ignorespaces Simula\IeC {\c c}\IeC {\~a}o realizada para teste do VHDL desenvolvido do contador ass\IeC {\'\i }ncrono com o sinal $SM=1$}}{6}}
\newlabel{fig:sm1_counter}{{2}{6}}
\@writefile{lof}{\contentsline {figure}{\numberline {3}{\ignorespaces Esquem\IeC {\'a}tico para o caminho cr\IeC {\'\i }tico otimizado do circuito contador descrito em VHDL}}{7}}
\newlabel{fig:critical_path}{{3}{7}}
\@writefile{lof}{\contentsline {figure}{\numberline {4}{\ignorespaces Esquem\IeC {\'a}tico do contador s\IeC {\'\i }ncrono desenvolvido em VHDL e sintetizado pelo \emph  {software Leonardo Spectrum}}}{8}}
\newlabel{fig:sincrona_schematic}{{4}{8}}
\@writefile{lof}{\contentsline {figure}{\numberline {5}{\ignorespaces Esquem\IeC {\'a}tico constru\IeC {\'\i }do pelo \emph  {software ICStudio} do contador descrito em VHDL e exportado pelo \emph  {software Leonardo Spectrum}}}{9}}
\newlabel{fig:schematic_icstudio}{{5}{9}}
\@writefile{lof}{\contentsline {figure}{\numberline {6}{\ignorespaces Simula\IeC {\c c}\IeC {\~a}o realizada para a raz\IeC {\~a}o entre as frequ\IeC {\^e}ncias de entrada e sa\IeC {\'\i }da do componente, com $SM=0$ - raz\IeC {\~a}o (adimensional) x frequ\IeC {\^e}ncia de entrada ($GHz$)}}{10}}
\newlabel{fig:ratio_sm0}{{6}{10}}
\@writefile{lof}{\contentsline {figure}{\numberline {7}{\ignorespaces Simula\IeC {\c c}\IeC {\~a}o realizada para a raz\IeC {\~a}o entre as frequ\IeC {\^e}ncias de entrada e sa\IeC {\'\i }da do componente, com $SM=1$ - raz\IeC {\~a}o (adimensional) x frequ\IeC {\^e}ncia de entrada ($GHz$)}}{10}}
\newlabel{fig:ratio_sm1}{{7}{10}}
\@writefile{lot}{\contentsline {table}{\numberline {1}{\ignorespaces Valores para as densidades de corrente dos metais utilizados da tecnologia AMS $0,35 \ensuremath  {\SI@fstyle  {\upmu }}m$}}{11}}
\newlabel{metal_current_density}{{1}{11}}
\@writefile{lof}{\contentsline {figure}{\numberline {8}{\ignorespaces \emph  {Layout} desenvolvido para o contador ass\IeC {\'\i }ncrono}}{11}}
\newlabel{fig:q11_layout}{{8}{11}}
\@writefile{lof}{\contentsline {figure}{\numberline {9}{\ignorespaces Simula\IeC {\c c}\IeC {\~a}o realizada para a raz\IeC {\~a}o entre as frequ\IeC {\^e}ncias de entrada e sa\IeC {\'\i }da do \emph  {layout} desenvolvido para o contador, com $SM=0$ - raz\IeC {\~a}o (adimensional) x frequ\IeC {\^e}ncia de entrada ($GHz$)}}{12}}
\newlabel{fig:ratio_sm0_layout}{{9}{12}}
\@writefile{lof}{\contentsline {figure}{\numberline {10}{\ignorespaces Simula\IeC {\c c}\IeC {\~a}o realizada para a raz\IeC {\~a}o entre as frequ\IeC {\^e}ncias de entrada e sa\IeC {\'\i }da do \emph  {layout} desenvolvido para o contador, com $SM=1$ - raz\IeC {\~a}o (adimensional) x frequ\IeC {\^e}ncia de entrada ($GHz$)}}{13}}
\newlabel{fig:ratio_sm1_layout}{{10}{13}}
\@writefile{lot}{\contentsline {table}{\numberline {2}{\ignorespaces \emph  {Clock} correspondente \IeC {\`a}s simula\IeC {\c c}\IeC {\~o}es e esquem\IeC {\'a}tico do circuito desenvolvido (contador ass\IeC {\'\i }ncrono) }}{13}}
\newlabel{tab:questions}{{2}{13}}
\@writefile{lof}{\contentsline {figure}{\numberline {11}{\ignorespaces Simula\IeC {\c c}\IeC {\~a}o realizada para teste do VHDL desenvolvido do \emph  {prescaler} com o sinal $SM=0$}}{15}}
\newlabel{fig:sm0_prescaler}{{11}{15}}
\@writefile{lof}{\contentsline {figure}{\numberline {12}{\ignorespaces Simula\IeC {\c c}\IeC {\~a}o realizada para teste do VHDL desenvolvido do \emph  {prescaler} com o sinal $SM=1$}}{15}}
\newlabel{fig:sm1_prescaler}{{12}{15}}
\@writefile{lof}{\contentsline {figure}{\numberline {13}{\ignorespaces Esquem\IeC {\'a}tico \emph  {prescaler} com s\IeC {\'\i }ntese \emph  {flatten}}}{16}}
\newlabel{fig:flatten}{{13}{16}}
\@writefile{lof}{\contentsline {figure}{\numberline {14}{\ignorespaces Esquem\IeC {\'a}tico \emph  {prescaler} com s\IeC {\'\i }ntese \emph  {preserve}}}{16}}
\newlabel{fig:preserve}{{14}{16}}
\@writefile{lof}{\contentsline {figure}{\numberline {15}{\ignorespaces Esquem\IeC {\'a}tico para o caminho cr\IeC {\'\i }tico otimizado (caso \emph  {flatten}) do circuito \emph  {prescaler} descrito em VHDL}}{17}}
\newlabel{fig:critical_path_prescaler}{{15}{17}}
\@writefile{lof}{\contentsline {figure}{\numberline {16}{\ignorespaces Caminho cr\IeC {\'\i }tico otimizado na vis\IeC {\~a}o do esquem\IeC {\'a}tico (caso \emph  {flatten}) do circuito \emph  {prescaler} descrito em VHDL}}{17}}
\newlabel{fig:critical_path_focus}{{16}{17}}
\@writefile{lof}{\contentsline {figure}{\numberline {17}{\ignorespaces \emph  {Layout} desenvolvido para o \emph  {prescaler} completo requisitado no relat\IeC {\'o}rio da diciplina}}{18}}
\newlabel{fig:layout_prescaler}{{17}{18}}
\@writefile{lof}{\contentsline {figure}{\numberline {18}{\ignorespaces Simula\IeC {\c c}\IeC {\~a}o realizada para a raz\IeC {\~a}o entre as frequ\IeC {\^e}ncias de entrada e sa\IeC {\'\i }da com rela\IeC {\c c}\IeC {\~a}o \IeC {\`a} frequ\IeC {\^e}ncia de entrada e sinal $SM=0$ - raz\IeC {\~a}o (adimensional) x frequ\IeC {\^e}ncia de entrada ($GHz$)}}{19}}
\newlabel{fig:sm0}{{18}{19}}
\@writefile{lof}{\contentsline {figure}{\numberline {19}{\ignorespaces Simula\IeC {\c c}\IeC {\~a}o realizada para a raz\IeC {\~a}o entre as frequ\IeC {\^e}ncias de entrada e sa\IeC {\'\i }da com rela\IeC {\c c}\IeC {\~a}o \IeC {\`a} frequ\IeC {\^e}ncia de entrada e sinal $SM=1$- raz\IeC {\~a}o (adimensional) x frequ\IeC {\^e}ncia ($GHz$)}}{20}}
\newlabel{fig:sm1}{{19}{20}}
