*--------------------------------- LINHA DE COMENTARIO -------------------*
.DEFMOD NMOS4 MODN
.DEFMOD PMOS4 MODP

*--------------------------- INCLUDE DA EXTRACAO--------------------------*
.INCLUDE "R+C+CC.cir"

*-------------------------------- PARAMETROS -----------------------------*
.param T1=3n

X1 VSS VDD CTR IN2 IN3 IN4 IN1 IN5 GATEARRAY

*------------------------------- DECLARACOES -----------------------------*
vdd_s VDD 0 3.3v
vss_s VSS 0 0v

.connect CTR VDD

*--------------------------------- PULSOS --------------------------------*
Vin CLOCK 0 PULSE(0 3.3 0 '0.1*T1' '0.1*T1' '0.50*T1 - 0.1*T1' T1)

*-------------------------------- COMANDOS STANDARD-----------------------*
.op
.ic IN1=0
.tran 0 '15*T1' 0 1p 

.plot V(IN1) V(IN2) V(IN3) V(IN4) V(IN5)

*------------------------------- MEASURES -------------------------------*
.meas tran delayRise1 trig V(IN1) val=1.55 fall=3 targ V(IN2) val=1.55 rise=3
.meas tran delayFall1 trig V(IN1) val=1.55 rise=3 targ V(IN2) val=1.55 fall=3

.meas tran delayRise2 trig V(IN2) val=1.55 fall=3 targ V(IN3) val=1.55 rise=3
.meas tran delayFall2 trig V(IN2) val=1.55 rise=3 targ V(IN3) val=1.55 fall=3

.meas tran delayRise3 trig V(IN3) val=1.55 fall=3 targ V(IN4) val=1.55 rise=3
.meas tran delayFall3 trig V(IN3) val=1.55 rise=3 targ V(IN4) val=1.55 fall=3

.meas tran delayRise4 trig V(IN4) val=1.55 fall=3 targ V(IN5) val=1.55 rise=3
.meas tran delayFall4 trig V(IN4) val=1.55 rise=3 targ V(IN5) val=1.55 fall=3

.meas tran delayRise5 trig V(IN5) val=1.55 fall=3 targ V(IN1) val=1.55 rise=3
.meas tran delayFall5 trig V(IN5) val=1.55 rise=3 targ V(IN1) val=1.55 fall=3

.meas tran oscilador trig V(IN3) val=1.55 fall=2 targ V(IN3) val=1.55 fall=3

*------------------- INCLUDE DOS MODELOS DE SIMULACAO -------------------*

.LIB "$AMS_DIR/eldo/c35/wc53.lib" tm

.end
