\relax 
\catcode `"\active 
\providecommand \oddpage@label [2]{}
\select@language{brazilian}
\@writefile{toc}{\select@language{brazilian}}
\@writefile{lof}{\select@language{brazilian}}
\@writefile{lot}{\select@language{brazilian}}
\@writefile{toc}{\contentsline {section}{\numberline {1}Introdu\IeC {\c c}\IeC {\~a}o}{3}}
\@writefile{toc}{\contentsline {section}{\numberline {2}Projeto}{4}}
\@writefile{lof}{\contentsline {figure}{\numberline {1}{\ignorespaces Esquem\IeC {\'a}tico para o circuito do rel\IeC {\'o}gio projetado (bloco divisor de frequ\IeC {\^e}ncia inicial n\IeC {\~a}o inclu\IeC {\'\i }do)}}{5}}
\newlabel{fig:esquematico_clock_logic}{{1}{5}}
\@writefile{lof}{\contentsline {figure}{\numberline {2}{\ignorespaces Esquem\IeC {\'a}tico do bloco divisor 32,768.}}{5}}
\newlabel{fig:esquematico_divisor_32768}{{2}{5}}
\@writefile{lof}{\contentsline {figure}{\numberline {3}{\ignorespaces Esquem\IeC {\'a}tico do bloco divisor 60.}}{6}}
\newlabel{fig:esquematico_divisor_60}{{3}{6}}
\@writefile{lof}{\contentsline {figure}{\numberline {4}{\ignorespaces Esquem\IeC {\'a}tico do bloco divisor 12.}}{7}}
\newlabel{fig:esquematico_divisor_12}{{4}{7}}
\@writefile{lof}{\contentsline {figure}{\numberline {5}{\ignorespaces Layout do bloco divisor 12.}}{8}}
\newlabel{fig:layout_divisor_12}{{5}{8}}
\@writefile{lof}{\contentsline {figure}{\numberline {6}{\ignorespaces Layout do bloco divisor 60.}}{9}}
\newlabel{fig:layout_divisor_60}{{6}{9}}
\@writefile{lof}{\contentsline {figure}{\numberline {7}{\ignorespaces Layout do bloco divisor 32,768.}}{9}}
\newlabel{fig:layout_divisor_32728}{{7}{9}}
\@writefile{lof}{\contentsline {figure}{\numberline {8}{\ignorespaces Layout final do circuito do rel\IeC {\'o}gio.}}{10}}
\newlabel{fig:layout_final}{{8}{10}}
\@writefile{lof}{\contentsline {figure}{\numberline {9}{\ignorespaces Simula\IeC {\c c}\IeC {\~a}o ELDO (extra\IeC {\c c}\IeC {\~a}o \emph  {netlist}) do bloco divisor 32,768 indicando o \emph  {clock} de entrada e a sa\IeC {\'\i }da dos 5 primeiros \emph  {flip-flops} - tens\IeC {\~a}o ($V$) x tempo ($s$)}}{11}}
\newlabel{fig:32728_sim}{{9}{11}}
\@writefile{lof}{\contentsline {figure}{\numberline {10}{\ignorespaces Simula\IeC {\c c}\IeC {\~a}o \emph  {ELDO} (extra\IeC {\c c}\IeC {\~a}o \emph  {netlist}) do bloco divisor 60 indicando as sa\IeC {\'\i }das do mesmo bem como o pulso de \emph  {clock} (primeira linha) - tens\IeC {\~a}o ($V$) x tempo ($s$)}}{12}}
\newlabel{fig:div60_sim}{{10}{12}}
\@writefile{lof}{\contentsline {figure}{\numberline {11}{\ignorespaces Simula\IeC {\c c}\IeC {\~a}o \emph  {ELDO} (extra\IeC {\c c}\IeC {\~a}o \emph  {netlist}) do bloco divisor 12 indicando as sa\IeC {\'\i }das do mesmo bem como o pulso de \emph  {clock} (primeira linha) - tens\IeC {\~a}o ($V$) x tempo ($s$)}}{13}}
\newlabel{fig:div12_sim}{{11}{13}}
\@writefile{lof}{\contentsline {figure}{\numberline {12}{\ignorespaces Simula\IeC {\c c}\IeC {\~a}o do funcionamento do rel\IeC {\'o}gio indicando a transi\IeC {\c c}\IeC {\~a}o de horas - tens\IeC {\~a}o ($V$) x tempo ($s$)}}{14}}
\newlabel{fig:clock_sim}{{12}{14}}
\@writefile{lof}{\contentsline {figure}{\numberline {13}{\ignorespaces Simula\IeC {\c c}\IeC {\~a}o do \emph  {modo de ajuste 0} de funcionamento do rel\IeC {\'o}gio (ajuste de minutos). Note que os minutos s\IeC {\~a}o incrementados de acordo com a frequ\IeC {\^e}ncia de $50\ MHz$ - tens\IeC {\~a}o ($V$) x tempo ($s$)}}{15}}
\newlabel{fig:minuto}{{13}{15}}
\@writefile{lof}{\contentsline {figure}{\numberline {14}{\ignorespaces Simula\IeC {\c c}\IeC {\~a}o do \emph  {modo de ajuste 1} de funcionamento do rel\IeC {\'o}gio (ajuste de horas). Note que as horas s\IeC {\~a}o incrementados de acordo com a frequ\IeC {\^e}ncia de $25\ MHz$ - tens\IeC {\~a}o ($V$) x tempo ($s$)}}{15}}
\newlabel{fig:hora}{{14}{15}}
\@writefile{lof}{\contentsline {figure}{\numberline {15}{\ignorespaces Simula\IeC {\c c}\IeC {\~a}o ELDO (extra\IeC {\c c}\IeC {\~a}o \emph  {netlist}) do bloco divisor 32,768 indicando o \emph  {clock} de entrada (tempos de subida/descida de cerca de 30\% do seu per\IeC {\'\i }odo) e a sa\IeC {\'\i }da dos 4 primeiros \emph  {flip-flops} - tens\IeC {\~a}o ($V$) x tempo ($s$)}}{17}}
\newlabel{fig:errou}{{15}{17}}
\@writefile{lof}{\contentsline {figure}{\numberline {16}{\ignorespaces Simula\IeC {\c c}\IeC {\~a}o ELDO (extra\IeC {\c c}\IeC {\~a}o \emph  {netlist}) do bloco divisor 32,768 com inversor indicando o \emph  {clock} de entrada (tempos de subida/descida de cerca de 30\% do seu per\IeC {\'\i }odo) e a sa\IeC {\'\i }da dos 4 primeiros \emph  {flip-flops} - tens\IeC {\~a}o ($V$) x tempo ($s$)}}{18}}
\newlabel{fig:acertou}{{16}{18}}
