PWD /Users/r3bs/Documents/nava6/relatorio3
INPUT /usr/local/texlive/2015/texmf.cnf
INPUT /usr/local/texlive/2015/texmf-dist/web2c/texmf.cnf
INPUT /usr/local/texlive/2015/texmf-var/web2c/pdftex/pdflatex.fmt
INPUT Relatorio3.tex
OUTPUT Relatorio3.log
INPUT /usr/local/texlive/2015/texmf-dist/tex/latex/base/article.cls
INPUT /usr/local/texlive/2015/texmf-dist/tex/latex/base/article.cls
INPUT /usr/local/texlive/2015/texmf-dist/tex/latex/base/size12.clo
INPUT /usr/local/texlive/2015/texmf-dist/tex/latex/base/size12.clo
INPUT /usr/local/texlive/2015/texmf-dist/fonts/map/fontname/texfonts.map
INPUT /usr/local/texlive/2015/texmf-dist/fonts/tfm/public/cm/cmr12.tfm
INPUT /usr/local/texlive/2015/texmf-dist/tex/latex/base/makeidx.sty
INPUT /usr/local/texlive/2015/texmf-dist/tex/latex/base/makeidx.sty
INPUT /usr/local/texlive/2015/texmf-dist/tex/latex/amsfonts/amssymb.sty
INPUT /usr/local/texlive/2015/texmf-dist/tex/latex/amsfonts/amssymb.sty
INPUT /usr/local/texlive/2015/texmf-dist/tex/latex/amsfonts/amsfonts.sty
INPUT /usr/local/texlive/2015/texmf-dist/tex/latex/amsfonts/amsfonts.sty
INPUT /usr/local/texlive/2015/texmf-dist/tex/latex/amscls/amsthm.sty
INPUT /usr/local/texlive/2015/texmf-dist/tex/latex/amscls/amsthm.sty
INPUT /usr/local/texlive/2015/texmf-dist/tex/latex/amsmath/amsmath.sty
INPUT /usr/local/texlive/2015/texmf-dist/tex/latex/amsmath/amsmath.sty
INPUT /usr/local/texlive/2015/texmf-dist/tex/latex/amsmath/amstext.sty
INPUT /usr/local/texlive/2015/texmf-dist/tex/latex/amsmath/amstext.sty
INPUT /usr/local/texlive/2015/texmf-dist/tex/latex/amsmath/amsgen.sty
INPUT /usr/local/texlive/2015/texmf-dist/tex/latex/amsmath/amsgen.sty
INPUT /usr/local/texlive/2015/texmf-dist/tex/latex/amsmath/amsbsy.sty
INPUT /usr/local/texlive/2015/texmf-dist/tex/latex/amsmath/amsbsy.sty
INPUT /usr/local/texlive/2015/texmf-dist/tex/latex/amsmath/amsopn.sty
INPUT /usr/local/texlive/2015/texmf-dist/tex/latex/amsmath/amsopn.sty
INPUT /usr/local/texlive/2015/texmf-dist/tex/latex/breqn/breqn.sty
INPUT /usr/local/texlive/2015/texmf-dist/tex/latex/breqn/breqn.sty
INPUT /usr/local/texlive/2015/texmf-dist/tex/latex/l3kernel/expl3.sty
INPUT /usr/local/texlive/2015/texmf-dist/tex/latex/l3kernel/expl3.sty
INPUT /usr/local/texlive/2015/texmf-dist/tex/latex/l3kernel/expl3-code.tex
INPUT /usr/local/texlive/2015/texmf-dist/tex/latex/l3kernel/expl3-code.tex
INPUT /usr/local/texlive/2015/texmf-dist/tex/latex/l3kernel/l3unicode-data.def
INPUT /usr/local/texlive/2015/texmf-dist/tex/latex/l3kernel/l3unicode-data.def
INPUT /usr/local/texlive/2015/texmf-dist/tex/latex/l3kernel/l3pdfmode.def
INPUT /usr/local/texlive/2015/texmf-dist/tex/latex/l3kernel/l3pdfmode.def
INPUT /usr/local/texlive/2015/texmf-dist/tex/latex/breqn/flexisym.sty
INPUT /usr/local/texlive/2015/texmf-dist/tex/latex/breqn/flexisym.sty
INPUT /usr/local/texlive/2015/texmf-dist/tex/latex/breqn/cmbase.sym
INPUT /usr/local/texlive/2015/texmf-dist/tex/latex/breqn/cmbase.sym
INPUT /usr/local/texlive/2015/texmf-dist/tex/latex/breqn/mathstyle.sty
INPUT /usr/local/texlive/2015/texmf-dist/tex/latex/breqn/mathstyle.sty
INPUT /usr/local/texlive/2015/texmf-dist/tex/latex/graphics/keyval.sty
INPUT /usr/local/texlive/2015/texmf-dist/tex/latex/graphics/keyval.sty
INPUT /usr/local/texlive/2015/texmf-dist/tex/latex/tools/calc.sty
INPUT /usr/local/texlive/2015/texmf-dist/tex/latex/tools/calc.sty
INPUT /usr/local/texlive/2015/texmf-dist/tex/latex/tools/enumerate.sty
INPUT /usr/local/texlive/2015/texmf-dist/tex/latex/tools/enumerate.sty
INPUT /usr/local/texlive/2015/texmf-dist/tex/latex/geometry/geometry.sty
INPUT /usr/local/texlive/2015/texmf-dist/tex/latex/geometry/geometry.sty
INPUT /usr/local/texlive/2015/texmf-dist/tex/generic/oberdiek/ifpdf.sty
INPUT /usr/local/texlive/2015/texmf-dist/tex/generic/oberdiek/ifpdf.sty
INPUT /usr/local/texlive/2015/texmf-dist/tex/generic/oberdiek/ifvtex.sty
INPUT /usr/local/texlive/2015/texmf-dist/tex/generic/oberdiek/ifvtex.sty
INPUT /usr/local/texlive/2015/texmf-dist/tex/generic/ifxetex/ifxetex.sty
INPUT /usr/local/texlive/2015/texmf-dist/tex/generic/ifxetex/ifxetex.sty
INPUT /usr/local/texlive/2015/texmf-dist/tex/latex/paralist/paralist.sty
INPUT /usr/local/texlive/2015/texmf-dist/tex/latex/paralist/paralist.sty
INPUT /usr/local/texlive/2015/texmf-dist/tex/latex/circuitikz/circuitikz.sty
INPUT /usr/local/texlive/2015/texmf-dist/tex/latex/circuitikz/circuitikz.sty
INPUT /usr/local/texlive/2015/texmf-dist/tex/latex/pgf/frontendlayer/tikz.sty
INPUT /usr/local/texlive/2015/texmf-dist/tex/latex/pgf/frontendlayer/tikz.sty
INPUT /usr/local/texlive/2015/texmf-dist/tex/latex/pgf/basiclayer/pgf.sty
INPUT /usr/local/texlive/2015/texmf-dist/tex/latex/pgf/basiclayer/pgf.sty
INPUT /usr/local/texlive/2015/texmf-dist/tex/latex/pgf/utilities/pgfrcs.sty
INPUT /usr/local/texlive/2015/texmf-dist/tex/latex/pgf/utilities/pgfrcs.sty
INPUT /usr/local/texlive/2015/texmf-dist/tex/generic/pgf/utilities/pgfutil-common.tex
INPUT /usr/local/texlive/2015/texmf-dist/tex/generic/pgf/utilities/pgfutil-common-lists.tex
INPUT /usr/local/texlive/2015/texmf-dist/tex/generic/pgf/utilities/pgfutil-latex.def
INPUT /usr/local/texlive/2015/texmf-dist/tex/latex/ms/everyshi.sty
INPUT /usr/local/texlive/2015/texmf-dist/tex/latex/ms/everyshi.sty
INPUT /usr/local/texlive/2015/texmf-dist/tex/generic/pgf/utilities/pgfrcs.code.tex
INPUT /usr/local/texlive/2015/texmf-dist/tex/generic/pgf/utilities/pgfrcs.code.tex
INPUT /usr/local/texlive/2015/texmf-dist/tex/latex/pgf/basiclayer/pgfcore.sty
INPUT /usr/local/texlive/2015/texmf-dist/tex/latex/pgf/basiclayer/pgfcore.sty
INPUT /usr/local/texlive/2015/texmf-dist/tex/latex/graphics/graphicx.sty
INPUT /usr/local/texlive/2015/texmf-dist/tex/latex/graphics/graphicx.sty
INPUT /usr/local/texlive/2015/texmf-dist/tex/latex/graphics/graphics.sty
INPUT /usr/local/texlive/2015/texmf-dist/tex/latex/graphics/graphics.sty
INPUT /usr/local/texlive/2015/texmf-dist/tex/latex/graphics/trig.sty
INPUT /usr/local/texlive/2015/texmf-dist/tex/latex/graphics/trig.sty
INPUT /usr/local/texlive/2015/texmf-dist/tex/latex/latexconfig/graphics.cfg
INPUT /usr/local/texlive/2015/texmf-dist/tex/latex/latexconfig/graphics.cfg
INPUT /usr/local/texlive/2015/texmf-dist/tex/latex/pdftex-def/pdftex.def
INPUT /usr/local/texlive/2015/texmf-dist/tex/latex/pdftex-def/pdftex.def
INPUT /usr/local/texlive/2015/texmf-dist/tex/generic/oberdiek/infwarerr.sty
INPUT /usr/local/texlive/2015/texmf-dist/tex/generic/oberdiek/infwarerr.sty
INPUT /usr/local/texlive/2015/texmf-dist/tex/generic/oberdiek/ltxcmds.sty
INPUT /usr/local/texlive/2015/texmf-dist/tex/generic/oberdiek/ltxcmds.sty
INPUT /usr/local/texlive/2015/texmf-dist/tex/latex/pgf/systemlayer/pgfsys.sty
INPUT /usr/local/texlive/2015/texmf-dist/tex/latex/pgf/systemlayer/pgfsys.sty
INPUT /usr/local/texlive/2015/texmf-dist/tex/generic/pgf/systemlayer/pgfsys.code.tex
INPUT /usr/local/texlive/2015/texmf-dist/tex/generic/pgf/systemlayer/pgfsys.code.tex
INPUT /usr/local/texlive/2015/texmf-dist/tex/generic/pgf/utilities/pgfkeys.code.tex
INPUT /usr/local/texlive/2015/texmf-dist/tex/generic/pgf/utilities/pgfkeysfiltered.code.tex
INPUT /usr/local/texlive/2015/texmf-dist/tex/generic/pgf/systemlayer/pgf.cfg
INPUT /usr/local/texlive/2015/texmf-dist/tex/generic/pgf/systemlayer/pgfsys-pdftex.def
INPUT /usr/local/texlive/2015/texmf-dist/tex/generic/pgf/systemlayer/pgfsys-pdftex.def
INPUT /usr/local/texlive/2015/texmf-dist/tex/generic/pgf/systemlayer/pgfsys-common-pdf.def
INPUT /usr/local/texlive/2015/texmf-dist/tex/generic/pgf/systemlayer/pgfsyssoftpath.code.tex
INPUT /usr/local/texlive/2015/texmf-dist/tex/generic/pgf/systemlayer/pgfsyssoftpath.code.tex
INPUT /usr/local/texlive/2015/texmf-dist/tex/generic/pgf/systemlayer/pgfsysprotocol.code.tex
INPUT /usr/local/texlive/2015/texmf-dist/tex/generic/pgf/systemlayer/pgfsysprotocol.code.tex
INPUT /usr/local/texlive/2015/texmf-dist/tex/latex/xcolor/xcolor.sty
INPUT /usr/local/texlive/2015/texmf-dist/tex/latex/xcolor/xcolor.sty
INPUT /usr/local/texlive/2015/texmf-dist/tex/latex/latexconfig/color.cfg
INPUT /usr/local/texlive/2015/texmf-dist/tex/latex/latexconfig/color.cfg
INPUT /usr/local/texlive/2015/texmf-dist/tex/generic/pgf/basiclayer/pgfcore.code.tex
INPUT /usr/local/texlive/2015/texmf-dist/tex/generic/pgf/basiclayer/pgfcore.code.tex
INPUT /usr/local/texlive/2015/texmf-dist/tex/generic/pgf/math/pgfmath.code.tex
INPUT /usr/local/texlive/2015/texmf-dist/tex/generic/pgf/math/pgfmathcalc.code.tex
INPUT /usr/local/texlive/2015/texmf-dist/tex/generic/pgf/math/pgfmathutil.code.tex
INPUT /usr/local/texlive/2015/texmf-dist/tex/generic/pgf/math/pgfmathparser.code.tex
INPUT /usr/local/texlive/2015/texmf-dist/tex/generic/pgf/math/pgfmathfunctions.code.tex
INPUT /usr/local/texlive/2015/texmf-dist/tex/generic/pgf/math/pgfmathfunctions.basic.code.tex
INPUT /usr/local/texlive/2015/texmf-dist/tex/generic/pgf/math/pgfmathfunctions.trigonometric.code.tex
INPUT /usr/local/texlive/2015/texmf-dist/tex/generic/pgf/math/pgfmathfunctions.random.code.tex
INPUT /usr/local/texlive/2015/texmf-dist/tex/generic/pgf/math/pgfmathfunctions.comparison.code.tex
INPUT /usr/local/texlive/2015/texmf-dist/tex/generic/pgf/math/pgfmathfunctions.base.code.tex
INPUT /usr/local/texlive/2015/texmf-dist/tex/generic/pgf/math/pgfmathfunctions.round.code.tex
INPUT /usr/local/texlive/2015/texmf-dist/tex/generic/pgf/math/pgfmathfunctions.misc.code.tex
INPUT /usr/local/texlive/2015/texmf-dist/tex/generic/pgf/math/pgfmathfunctions.integerarithmetics.code.tex
INPUT /usr/local/texlive/2015/texmf-dist/tex/generic/pgf/math/pgfmathfloat.code.tex
INPUT /usr/local/texlive/2015/texmf-dist/tex/generic/pgf/basiclayer/pgfcorepoints.code.tex
INPUT /usr/local/texlive/2015/texmf-dist/tex/generic/pgf/basiclayer/pgfcorepathconstruct.code.tex
INPUT /usr/local/texlive/2015/texmf-dist/tex/generic/pgf/basiclayer/pgfcorepathusage.code.tex
INPUT /usr/local/texlive/2015/texmf-dist/tex/generic/pgf/basiclayer/pgfcorescopes.code.tex
INPUT /usr/local/texlive/2015/texmf-dist/tex/generic/pgf/basiclayer/pgfcoregraphicstate.code.tex
INPUT /usr/local/texlive/2015/texmf-dist/tex/generic/pgf/basiclayer/pgfcoretransformations.code.tex
INPUT /usr/local/texlive/2015/texmf-dist/tex/generic/pgf/basiclayer/pgfcorequick.code.tex
INPUT /usr/local/texlive/2015/texmf-dist/tex/generic/pgf/basiclayer/pgfcoreobjects.code.tex
INPUT /usr/local/texlive/2015/texmf-dist/tex/generic/pgf/basiclayer/pgfcorepathprocessing.code.tex
INPUT /usr/local/texlive/2015/texmf-dist/tex/generic/pgf/basiclayer/pgfcorearrows.code.tex
INPUT /usr/local/texlive/2015/texmf-dist/tex/generic/pgf/basiclayer/pgfcoreshade.code.tex
INPUT /usr/local/texlive/2015/texmf-dist/tex/generic/pgf/basiclayer/pgfcoreimage.code.tex
INPUT /usr/local/texlive/2015/texmf-dist/tex/generic/pgf/basiclayer/pgfcoreexternal.code.tex
INPUT /usr/local/texlive/2015/texmf-dist/tex/generic/pgf/basiclayer/pgfcorelayers.code.tex
INPUT /usr/local/texlive/2015/texmf-dist/tex/generic/pgf/basiclayer/pgfcoretransparency.code.tex
INPUT /usr/local/texlive/2015/texmf-dist/tex/generic/pgf/basiclayer/pgfcorepatterns.code.tex
INPUT /usr/local/texlive/2015/texmf-dist/tex/generic/pgf/modules/pgfmoduleshapes.code.tex
INPUT /usr/local/texlive/2015/texmf-dist/tex/generic/pgf/modules/pgfmoduleplot.code.tex
INPUT /usr/local/texlive/2015/texmf-dist/tex/latex/pgf/compatibility/pgfcomp-version-0-65.sty
INPUT /usr/local/texlive/2015/texmf-dist/tex/latex/pgf/compatibility/pgfcomp-version-0-65.sty
INPUT /usr/local/texlive/2015/texmf-dist/tex/latex/pgf/compatibility/pgfcomp-version-1-18.sty
INPUT /usr/local/texlive/2015/texmf-dist/tex/latex/pgf/compatibility/pgfcomp-version-1-18.sty
INPUT /usr/local/texlive/2015/texmf-dist/tex/latex/pgf/utilities/pgffor.sty
INPUT /usr/local/texlive/2015/texmf-dist/tex/latex/pgf/utilities/pgffor.sty
INPUT /usr/local/texlive/2015/texmf-dist/tex/latex/pgf/utilities/pgfkeys.sty
INPUT /usr/local/texlive/2015/texmf-dist/tex/latex/pgf/utilities/pgfkeys.sty
INPUT /usr/local/texlive/2015/texmf-dist/tex/generic/pgf/utilities/pgfkeys.code.tex
INPUT /usr/local/texlive/2015/texmf-dist/tex/generic/pgf/utilities/pgfkeys.code.tex
INPUT /usr/local/texlive/2015/texmf-dist/tex/latex/pgf/math/pgfmath.sty
INPUT /usr/local/texlive/2015/texmf-dist/tex/latex/pgf/math/pgfmath.sty
INPUT /usr/local/texlive/2015/texmf-dist/tex/generic/pgf/math/pgfmath.code.tex
INPUT /usr/local/texlive/2015/texmf-dist/tex/generic/pgf/math/pgfmath.code.tex
INPUT /usr/local/texlive/2015/texmf-dist/tex/generic/pgf/utilities/pgffor.code.tex
INPUT /usr/local/texlive/2015/texmf-dist/tex/generic/pgf/utilities/pgffor.code.tex
INPUT /usr/local/texlive/2015/texmf-dist/tex/generic/pgf/math/pgfmath.code.tex
INPUT /usr/local/texlive/2015/texmf-dist/tex/generic/pgf/frontendlayer/tikz/tikz.code.tex
INPUT /usr/local/texlive/2015/texmf-dist/tex/generic/pgf/frontendlayer/tikz/tikz.code.tex
INPUT /usr/local/texlive/2015/texmf-dist/tex/generic/pgf/libraries/pgflibraryplothandlers.code.tex
INPUT /usr/local/texlive/2015/texmf-dist/tex/generic/pgf/libraries/pgflibraryplothandlers.code.tex
INPUT /usr/local/texlive/2015/texmf-dist/tex/generic/pgf/modules/pgfmodulematrix.code.tex
INPUT /usr/local/texlive/2015/texmf-dist/tex/generic/pgf/frontendlayer/tikz/libraries/tikzlibrarytopaths.code.tex
INPUT /usr/local/texlive/2015/texmf-dist/tex/generic/pgf/frontendlayer/tikz/libraries/tikzlibrarytopaths.code.tex
INPUT /usr/local/texlive/2015/texmf-dist/tex/generic/pgf/frontendlayer/tikz/libraries/tikzlibrarycalc.code.tex
INPUT /usr/local/texlive/2015/texmf-dist/tex/generic/pgf/frontendlayer/tikz/libraries/tikzlibrarycalc.code.tex
INPUT /usr/local/texlive/2015/texmf-dist/tex/generic/pgf/libraries/pgflibraryarrows.code.tex
INPUT /usr/local/texlive/2015/texmf-dist/tex/generic/pgf/libraries/pgflibraryarrows.code.tex
INPUT /usr/local/texlive/2015/texmf-dist/tex/generic/circuitikz/circuitikz.code.tex
INPUT /usr/local/texlive/2015/texmf-dist/tex/generic/circuitikz/pgfcircutils.tex
INPUT /usr/local/texlive/2015/texmf-dist/tex/generic/circuitikz/pgfcircmath.tex
INPUT /usr/local/texlive/2015/texmf-dist/tex/generic/circuitikz/pgfcircshapes.tex
INPUT /usr/local/texlive/2015/texmf-dist/tex/generic/circuitikz/pgfcircmonopoles.tex
INPUT /usr/local/texlive/2015/texmf-dist/tex/generic/circuitikz/pgfcircbipoles.tex
INPUT /usr/local/texlive/2015/texmf-dist/tex/generic/circuitikz/pgfcirctripoles.tex
INPUT /usr/local/texlive/2015/texmf-dist/tex/generic/circuitikz/pgfcircquadpoles.tex
INPUT /usr/local/texlive/2015/texmf-dist/tex/generic/circuitikz/pgfcircnpoles.tex
INPUT /usr/local/texlive/2015/texmf-dist/tex/generic/circuitikz/pgfcirclabel.tex
INPUT /usr/local/texlive/2015/texmf-dist/tex/generic/circuitikz/pgfcircvoltage.tex
INPUT /usr/local/texlive/2015/texmf-dist/tex/generic/circuitikz/pgfcirccurrent.tex
INPUT /usr/local/texlive/2015/texmf-dist/tex/generic/circuitikz/pgfcircinputarrows.tex
INPUT /usr/local/texlive/2015/texmf-dist/tex/generic/circuitikz/circuitikz1.code.tex
INPUT /usr/local/texlive/2015/texmf-dist/tex/latex/lstaddons/lstautogobble.sty
INPUT /usr/local/texlive/2015/texmf-dist/tex/latex/lstaddons/lstautogobble.sty
INPUT /usr/local/texlive/2015/texmf-dist/tex/latex/listings/listings.sty
INPUT /usr/local/texlive/2015/texmf-dist/tex/latex/listings/listings.sty
INPUT /usr/local/texlive/2015/texmf-dist/tex/latex/listings/lstmisc.sty
INPUT /usr/local/texlive/2015/texmf-dist/tex/latex/listings/lstmisc.sty
INPUT /usr/local/texlive/2015/texmf-dist/tex/latex/listings/listings.cfg
INPUT /usr/local/texlive/2015/texmf-dist/tex/latex/listings/listings.cfg
INPUT /usr/local/texlive/2015/texmf-dist/tex/latex/tools/array.sty
INPUT /usr/local/texlive/2015/texmf-dist/tex/latex/tools/array.sty
INPUT /usr/local/texlive/2015/texmf-dist/tex/latex/wrapfig/wrapfig.sty
INPUT /usr/local/texlive/2015/texmf-dist/tex/latex/wrapfig/wrapfig.sty
INPUT /usr/local/texlive/2015/texmf-dist/tex/latex/placeins/placeins.sty
INPUT /usr/local/texlive/2015/texmf-dist/tex/latex/placeins/placeins.sty
INPUT /usr/local/texlive/2015/texmf-dist/tex/latex/SIunits/SIunits.sty
INPUT /usr/local/texlive/2015/texmf-dist/tex/latex/SIunits/SIunits.sty
INPUT /usr/local/texlive/2015/texmf-dist/tex/latex/SIunits/SIunits.cfg
INPUT /usr/local/texlive/2015/texmf-dist/tex/latex/SIunits/SIunits.cfg
INPUT /usr/local/texlive/2015/texmf-dist/tex/latex/fancyhdr/fancyhdr.sty
INPUT /usr/local/texlive/2015/texmf-dist/tex/latex/fancyhdr/fancyhdr.sty
INPUT /usr/local/texlive/2015/texmf-dist/tex/generic/babel/babel.sty
INPUT /usr/local/texlive/2015/texmf-dist/tex/generic/babel/babel.sty
INPUT /usr/local/texlive/2015/texmf-dist/tex/generic/babel-portuges/portuges.ldf
INPUT /usr/local/texlive/2015/texmf-dist/tex/generic/babel-portuges/portuges.ldf
INPUT /usr/local/texlive/2015/texmf-dist/tex/generic/babel/babel.def
INPUT /usr/local/texlive/2015/texmf-dist/tex/latex/base/inputenc.sty
INPUT /usr/local/texlive/2015/texmf-dist/tex/latex/base/inputenc.sty
INPUT /usr/local/texlive/2015/texmf-dist/tex/latex/base/utf8.def
INPUT /usr/local/texlive/2015/texmf-dist/tex/latex/base/utf8.def
INPUT /usr/local/texlive/2015/texmf-dist/tex/latex/base/t1enc.dfu
INPUT /usr/local/texlive/2015/texmf-dist/tex/latex/base/t1enc.dfu
INPUT /usr/local/texlive/2015/texmf-dist/tex/latex/base/ot1enc.dfu
INPUT /usr/local/texlive/2015/texmf-dist/tex/latex/base/ot1enc.dfu
INPUT /usr/local/texlive/2015/texmf-dist/tex/latex/base/omsenc.dfu
INPUT /usr/local/texlive/2015/texmf-dist/tex/latex/base/omsenc.dfu
INPUT /usr/local/texlive/2015/texmf-dist/tex/latex/base/ts1enc.dfu
INPUT /usr/local/texlive/2015/texmf-dist/tex/latex/base/ts1enc.dfu
INPUT /usr/local/texlive/2015/texmf-dist/tex/latex/adjustbox/adjustbox.sty
INPUT /usr/local/texlive/2015/texmf-dist/tex/latex/adjustbox/adjustbox.sty
INPUT /usr/local/texlive/2015/texmf-dist/tex/latex/xkeyval/xkeyval.sty
INPUT /usr/local/texlive/2015/texmf-dist/tex/latex/xkeyval/xkeyval.sty
INPUT /usr/local/texlive/2015/texmf-dist/tex/generic/xkeyval/xkeyval.tex
INPUT /usr/local/texlive/2015/texmf-dist/tex/generic/xkeyval/xkvutils.tex
INPUT /usr/local/texlive/2015/texmf-dist/tex/latex/adjustbox/adjcalc.sty
INPUT /usr/local/texlive/2015/texmf-dist/tex/latex/adjustbox/adjcalc.sty
INPUT /usr/local/texlive/2015/texmf-dist/tex/latex/adjustbox/trimclip.sty
INPUT /usr/local/texlive/2015/texmf-dist/tex/latex/adjustbox/trimclip.sty
INPUT /usr/local/texlive/2015/texmf-dist/tex/latex/collectbox/collectbox.sty
INPUT /usr/local/texlive/2015/texmf-dist/tex/latex/collectbox/collectbox.sty
INPUT /usr/local/texlive/2015/texmf-dist/tex/latex/adjustbox/tc-pdftex.def
INPUT /usr/local/texlive/2015/texmf-dist/tex/latex/adjustbox/tc-pdftex.def
INPUT /usr/local/texlive/2015/texmf-dist/tex/latex/ifoddpage/ifoddpage.sty
INPUT /usr/local/texlive/2015/texmf-dist/tex/latex/ifoddpage/ifoddpage.sty
INPUT /usr/local/texlive/2015/texmf-dist/tex/latex/ifoddpage/ifoddpage.sty
INPUT /usr/local/texlive/2015/texmf-dist/tex/latex/varwidth/varwidth.sty
INPUT /usr/local/texlive/2015/texmf-dist/tex/latex/varwidth/varwidth.sty
INPUT /usr/local/texlive/2015/texmf-dist/tex/latex/varwidth/varwidth.sty
INPUT Relatorio3.aux
INPUT Relatorio3.aux
OUTPUT Relatorio3.aux
INPUT /usr/local/texlive/2015/texmf-dist/tex/latex/base/ts1cmr.fd
INPUT /usr/local/texlive/2015/texmf-dist/tex/latex/base/ts1cmr.fd
INPUT /usr/local/texlive/2015/texmf-dist/tex/context/base/supp-pdf.mkii
INPUT /usr/local/texlive/2015/texmf-dist/tex/context/base/supp-pdf.mkii
INPUT /usr/local/texlive/2015/texmf-dist/tex/generic/oberdiek/pdftexcmds.sty
INPUT /usr/local/texlive/2015/texmf-dist/tex/generic/oberdiek/pdftexcmds.sty
INPUT /usr/local/texlive/2015/texmf-dist/tex/generic/oberdiek/ifluatex.sty
INPUT /usr/local/texlive/2015/texmf-dist/tex/generic/oberdiek/ifluatex.sty
INPUT /usr/local/texlive/2015/texmf-dist/tex/latex/oberdiek/epstopdf-base.sty
INPUT /usr/local/texlive/2015/texmf-dist/tex/latex/oberdiek/epstopdf-base.sty
INPUT /usr/local/texlive/2015/texmf-dist/tex/latex/oberdiek/grfext.sty
INPUT /usr/local/texlive/2015/texmf-dist/tex/latex/oberdiek/grfext.sty
INPUT /usr/local/texlive/2015/texmf-dist/tex/generic/oberdiek/kvdefinekeys.sty
INPUT /usr/local/texlive/2015/texmf-dist/tex/generic/oberdiek/kvdefinekeys.sty
INPUT /usr/local/texlive/2015/texmf-dist/tex/latex/oberdiek/kvoptions.sty
INPUT /usr/local/texlive/2015/texmf-dist/tex/latex/oberdiek/kvoptions.sty
INPUT /usr/local/texlive/2015/texmf-dist/tex/generic/oberdiek/kvsetkeys.sty
INPUT /usr/local/texlive/2015/texmf-dist/tex/generic/oberdiek/kvsetkeys.sty
INPUT /usr/local/texlive/2015/texmf-dist/tex/generic/oberdiek/etexcmds.sty
INPUT /usr/local/texlive/2015/texmf-dist/tex/generic/oberdiek/etexcmds.sty
INPUT /usr/local/texlive/2015/texmf-dist/tex/latex/latexconfig/epstopdf-sys.cfg
INPUT /usr/local/texlive/2015/texmf-dist/tex/latex/latexconfig/epstopdf-sys.cfg
INPUT /usr/local/texlive/2015/texmf-dist/fonts/tfm/public/cm/cmr17.tfm
INPUT /usr/local/texlive/2015/texmf-dist/fonts/tfm/public/cm/cmbx12.tfm
INPUT /usr/local/texlive/2015/texmf-dist/fonts/tfm/public/cm/cmti12.tfm
INPUT images/logo_eesc.png
INPUT ./images/logo_eesc.png
OUTPUT Relatorio3.pdf
INPUT ./images/logo_eesc.png
INPUT /usr/local/texlive/2015/texmf-var/fonts/map/pdftex/updmap/pdftex.map
INPUT /usr/local/texlive/2015/texmf-dist/fonts/tfm/public/cm/cmr17.tfm
INPUT /usr/local/texlive/2015/texmf-dist/fonts/tfm/public/cm/cmbx12.tfm
INPUT Relatorio3.toc
INPUT Relatorio3.toc
INPUT /usr/local/texlive/2015/texmf-dist/fonts/tfm/public/cm/cmbx12.tfm
OUTPUT Relatorio3.toc
INPUT Relatorio3.lof
INPUT Relatorio3.lof
INPUT /usr/local/texlive/2015/texmf-dist/fonts/tfm/public/cm/cmr8.tfm
INPUT /usr/local/texlive/2015/texmf-dist/fonts/tfm/public/cm/cmr6.tfm
INPUT /usr/local/texlive/2015/texmf-dist/fonts/tfm/public/cm/cmmi12.tfm
INPUT /usr/local/texlive/2015/texmf-dist/fonts/tfm/public/cm/cmmi8.tfm
INPUT /usr/local/texlive/2015/texmf-dist/fonts/tfm/public/cm/cmmi6.tfm
INPUT /usr/local/texlive/2015/texmf-dist/fonts/tfm/public/cm/cmsy10.tfm
INPUT /usr/local/texlive/2015/texmf-dist/fonts/tfm/public/cm/cmsy8.tfm
INPUT /usr/local/texlive/2015/texmf-dist/fonts/tfm/public/cm/cmsy6.tfm
INPUT /usr/local/texlive/2015/texmf-dist/fonts/tfm/public/cm/cmex10.tfm
INPUT /usr/local/texlive/2015/texmf-dist/fonts/tfm/public/amsfonts/cmextra/cmex8.tfm
INPUT /usr/local/texlive/2015/texmf-dist/fonts/tfm/public/amsfonts/cmextra/cmex7.tfm
INPUT /usr/local/texlive/2015/texmf-dist/tex/latex/amsfonts/umsa.fd
INPUT /usr/local/texlive/2015/texmf-dist/tex/latex/amsfonts/umsa.fd
INPUT /usr/local/texlive/2015/texmf-dist/fonts/tfm/public/amsfonts/symbols/msam10.tfm
INPUT /usr/local/texlive/2015/texmf-dist/fonts/tfm/public/amsfonts/symbols/msam10.tfm
INPUT /usr/local/texlive/2015/texmf-dist/fonts/tfm/public/amsfonts/symbols/msam7.tfm
INPUT /usr/local/texlive/2015/texmf-dist/tex/latex/amsfonts/umsb.fd
INPUT /usr/local/texlive/2015/texmf-dist/tex/latex/amsfonts/umsb.fd
INPUT /usr/local/texlive/2015/texmf-dist/fonts/tfm/public/amsfonts/symbols/msbm10.tfm
INPUT /usr/local/texlive/2015/texmf-dist/fonts/tfm/public/amsfonts/symbols/msbm10.tfm
INPUT /usr/local/texlive/2015/texmf-dist/fonts/tfm/public/amsfonts/symbols/msbm7.tfm
INPUT /usr/local/texlive/2015/texmf-dist/fonts/tfm/public/amsfonts/euler/eurm10.tfm
INPUT /usr/local/texlive/2015/texmf-dist/fonts/tfm/public/amsfonts/euler/eurm8.tfm
INPUT /usr/local/texlive/2015/texmf-dist/fonts/tfm/public/amsfonts/euler/eurm6.tfm
OUTPUT Relatorio3.lof
INPUT /usr/local/texlive/2015/texmf-dist/fonts/tfm/public/cm/cmr12.tfm
INPUT /usr/local/texlive/2015/texmf-dist/fonts/tfm/public/cm/cmbx12.tfm
INPUT images/q7/layout.png
INPUT ./images/q7/layout.png
INPUT ./images/q7/layout.png
INPUT /usr/local/texlive/2015/texmf-dist/tex/latex/listings/lstlang1.sty
INPUT /usr/local/texlive/2015/texmf-dist/tex/latex/listings/lstlang1.sty
INPUT /usr/local/texlive/2015/texmf-dist/tex/latex/listings/lstlang1.sty
INPUT /usr/local/texlive/2015/texmf-dist/tex/latex/listings/lstlang1.sty
INPUT /usr/local/texlive/2015/texmf-dist/fonts/tfm/public/cm/cmtt8.tfm
INPUT /usr/local/texlive/2015/texmf-dist/tex/latex/base/omscmr.fd
INPUT /usr/local/texlive/2015/texmf-dist/tex/latex/base/omscmr.fd
INPUT images/q8/sinais_ezwave.jpg
INPUT ./images/q8/sinais_ezwave.jpg
INPUT ./images/q8/sinais_ezwave.jpg
INPUT images/q9/freq_x_ctr_ws.jpg
INPUT ./images/q9/freq_x_ctr_ws.jpg
INPUT ./images/q9/freq_x_ctr_ws.jpg
INPUT images/q9/freq_x_ctr_wp.jpg
INPUT ./images/q9/freq_x_ctr_wp.jpg
INPUT ./images/q9/freq_x_ctr_wp.jpg
INPUT images/q9/freq_x_ctr_tipical.jpg
INPUT ./images/q9/freq_x_ctr_tipical.jpg
INPUT ./images/q9/freq_x_ctr_tipical.jpg
INPUT /usr/local/texlive/2015/texmf-dist/fonts/tfm/public/cm/cmbxti10.tfm
INPUT Relatorio3.aux
INPUT /usr/local/texlive/2015/texmf-dist/fonts/type1/public/amsfonts/cm/cmbx12.pfb
INPUT /usr/local/texlive/2015/texmf-dist/fonts/type1/public/amsfonts/cm/cmbxti10.pfb
INPUT /usr/local/texlive/2015/texmf-dist/fonts/type1/public/amsfonts/cm/cmmi12.pfb
INPUT /usr/local/texlive/2015/texmf-dist/fonts/type1/public/amsfonts/cm/cmmi8.pfb
INPUT /usr/local/texlive/2015/texmf-dist/fonts/type1/public/amsfonts/cm/cmr12.pfb
INPUT /usr/local/texlive/2015/texmf-dist/fonts/type1/public/amsfonts/cm/cmsy10.pfb
INPUT /usr/local/texlive/2015/texmf-dist/fonts/type1/public/amsfonts/cm/cmti12.pfb
INPUT /usr/local/texlive/2015/texmf-dist/fonts/type1/public/amsfonts/cm/cmtt8.pfb
INPUT /usr/local/texlive/2015/texmf-dist/fonts/type1/public/amsfonts/euler/eurm10.pfb
